[
   {
      "pk":1,
      "model":"workbench.blockmap",
      "fields":{
         "name":"tester1.jpg",
         "created_by":"1",
         "created_at":"2012-10-10 01:24:42.797702",
         "modified":"2012-10-10 01:24:42.797753",
         "json":[
            {
               "type":"graphiti.shape.node.Start",
               "id":"354fa3b9-a834-0221-2009-abc2d6bd852a",
               "x":35,
               "y":92,
               "width":107,
               "height":105,
               "radius":2
            },
            {
               "type":"graphiti.shape.node.Between",
               "id":"ebfb35bb-5767-8155-c804-abc2d6ad832a",
               "x":231,
               "y":119,
               "width":50,
               "height":50,
               "radius":2
            },
            {
               "type":"graphiti.shape.node.End",
               "id":"ebfb35bb-5767-8155-c804-14bda7759dc2",
               "x":419,
               "y":115,
               "width":58,
               "height":59,
               "radius":2
            },
            {
               "type":"graphiti.Connection",
               "id":"c59645f2-6044-0bc3-e06f-f2a70e6a5b87",
               "source":{
                  "node":"354fa3b9-a834-0221-2009-abc2d6bd852a",
                  "port":"output0"
               },
               "target":{
                  "node":"ebfb35bb-5767-8155-c804-abc2d6ad832a",
                  "port":"input0"
               }
            },
            {
               "type":"graphiti.Connection",
               "id":"4803b5c1-c3ac-2729-24b9-a36dc9901c87",
               "source":{
                  "node":"ebfb35bb-5767-8155-c804-abc2d6ad832a",
                  "port":"output0"
               },
               "target":{
                  "node":"ebfb35bb-5767-8155-c804-14bda7759dc2",
                  "port":"input0"
               }
            }
         ]
      }
   }
]